{
  "title": "Selenium nunca mais, Cypress para sempre!",
  "summary": "Vamos falar um pouco de Cypress, de como ele pode facilitar a sua vida para criar testes funcionais, testes de regressão visual e unitários",
  "messageForCommitte": "Nessa palestra vamos falar sobre Cypress, de como é fácil implementar testes funcionais e de regressão visual. De como o Cypress pode ser utilizado para rodar todos os seus testes, mas não somente os funcionais.",
  "type": "Palestra curta (25min)",
  "language": "Português",
  "track": "Node.js"
}
